…
***1.2.2 Which game genre have the highest rating and has this changed
overtime?***

*Summarizing: Task 2*

``` r
steam_games %>%
  # Only keep the first genre in genre list
  separate(genre, sep=',', into=c("genre"), remove=TRUE, extra = "drop", fill = "right") %>% 
  group_by(genre) %>% 
  summarize(n = n()) # Display number of games in each genre
```

    ## # A tibble: 32 x 2
    ##    genre                     n
    ##    <chr>                 <int>
    ##  1 Accounting                6
    ##  2 Action                16290
    ##  3 Adventure              6854
    ##  4 Animation & Modeling    231
    ##  5 Audio Production        122
    ##  6 Casual                 6348
    ##  7 Design & Illustration   471
    ##  8 Early Access              6
    ##  9 Education                83
    ## 10 Free to Play            577
    ## # ... with 22 more rows
…
``` r
steam_games %>%
  # Get review level by parsing string based on comma deliminator and keeping first object
  separate(all_reviews, sep=',', into=c("review"), remove=FALSE, extra = "drop", fill = "right") %>%
  filter(review %in% review_level) %>% # Remove reviews not in correct format (e.g not enough review or NA) 
  mutate(num_reviews = stringr::str_extract(string = all_reviews, 
                                               pattern = "(?<=\\().*(?=\\))")) %>% # Obtain number of review based on value in bracket
  mutate(discount_price = case_when(is.na(discount_price) ~ original_price,
                                    TRUE ~ discount_price)) %>% # change discount price with NA to original price
  drop_na(original_price) %>% # Remove games without price 
  select(id, original_price, discount_price, review, num_reviews) %>% # Keep columns related to price and reviews
  mutate(discount = original_price - discount_price) # Create new column that is discount amount
```

    ## # A tibble: 16,966 x 6
    ##       id original_price discount_price review          num_reviews discount
    ##    <dbl>          <dbl>          <dbl> <chr>           <chr>          <dbl>
    ##  1     1           20.0           15.0 Very Positive   42,550          5   
    ##  2     2           30.0           30.0 Mixed           836,608         0   
    ##  3     3           40.0           40.0 Mostly Positive 7,030           0   
    ##  4     4           45.0           45.0 Mixed           167,115         0   
    ##  5     5            0              0   Mostly Positive 11,481          0   
    ##  6     7           60.0           70.4 Very Positive   9,645         -10.4 
    ##  7     8           15.0           17.6 Very Positive   23,763         -2.59
    ##  8     9           30.0           30.0 Very Positive   12,127          0   
    ##  9    10           50.0           50.0 Mixed           904             0   
    ## 10    11           20.0           20.0 Very Positive   4,600           0   
    ## # ... with 16,956 more rows
…
``` r
steam_games %>%
  # Get review level by parsing string based on comma deliminator and keeping first object
  separate(all_reviews, sep=',', into=c("review"), remove=FALSE, extra = "drop", fill = "right") %>%
  filter(review %in% review_level) %>% # Remove reviews not in correct format (e.g not enough review or NA) 
  # Change release_date to date format and keep year only
  separate(genre, sep=',', into=c("genre"), remove=TRUE, extra = "drop", fill = "right") %>%
  select(id, achievements, review, genre) %>% # Keep columns related to achievement review and genre
  mutate(achievements = case_when(is.na(achievements) ~ 0, # Change achievements with NA to 0 
                                    TRUE ~ achievements))
```

    ## # A tibble: 17,363 x 4
    ##       id achievements review          genre    
    ##    <dbl>        <dbl> <chr>           <chr>    
    ##  1     1           54 Very Positive   Action   
    ##  2     2           37 Mixed           Action   
    ##  3     3          128 Mostly Positive Action   
    ##  4     4            0 Mixed           Action   
    ##  5     5            0 Mostly Positive Action   
    ##  6     7           51 Very Positive   Action   
    ##  7     8           55 Very Positive   Adventure
    ##  8     9           34 Very Positive   Strategy 
    ##  9    10           43 Mixed           Action   
    ## 10    11           72 Very Positive   Adventure
    ## # ... with 17,353 more rows
…
