Mini Data-Analysis Deliverable 3
…
1.1.2 Do the number of achievements in a game affect their rating?

steam_games %>%
  # Get review level by parsing string based on comma deliminator and keeping first object
  separate(all_reviews, sep=',', into=c("review"), remove=FALSE, extra = "drop", fill = "right") %>%
  filter(review %in% review_levels) %>% # Remove reviews not in correct format (e.g not enough review or NA) 
  # Change release_date to date format and keep year only
  separate(genre, sep=',', into=c("genre"), remove=TRUE, extra = "drop", fill = "right") %>%
  select(id, achievements, review, genre) %>% # Keep columns related to achievement review and genre
  mutate(achievements = case_when(is.na(achievements) ~ 0, # Change achievements with NA to 0 
                                    TRUE ~ achievements))

## # A tibble: 17,363 x 4
##       id achievements review          genre    
##    <dbl>        <dbl> <chr>           <chr>    
##  1     1           54 Very Positive   Action   
##  2     2           37 Mixed           Action   
##  3     3          128 Mostly Positive Action   
##  4     4            0 Mixed           Action   
##  5     5            0 Mostly Positive Action   
##  6     7           51 Very Positive   Action   
##  7     8           55 Very Positive   Adventure
##  8     9           34 Very Positive   Strategy 
##  9    10           43 Mixed           Action   
## 10    11           72 Very Positive   Adventure
## # ... with 17,353 more rows
…
